{"queryTime":"2 Seconds","totalCount":5143,"pageNumber":1,"perPage":200,"pageCount":200,"data":[{"id":1246219,"name":"Turkisksad","duration":24},{"id":905115,"name":"Mora Piya Music","duration":13},{"id":814384,"name":"Nuvvunte","duration":6},{"id":845518,"name":"Sad Violin 2011","duration":28},{"id":965859,"name":"Ana Kont Asalaaa","duration":27},{"id":954976,"name":"Violin Kilukkam","duration":12},{"id":839557,"name":"Sad Soul","duration":28},{"id":1199861,"name":"Balika Vadhu","duration":29},{"id":285966,"name":"Sad Of Atif Aslam","duration":29},{"id":930885,"name":"Arabic Sad Song","duration":25},{"id":1243721,"name":"Srabon Bangla Tone","duration":18},{"id":808824,"name":"Tujhe Bhula Diya","duration":23},{"id":921567,"name":"Piya O Re Piya New","duration":28},{"id":100864,"name":"Nice Music","duration":27},{"id":845441,"name":"Kothay Uttay","duration":29},{"id":342723,"name":"Something Something","duration":19},{"id":915107,"name":"Intezaar Yeh Pal","duration":27},{"id":1328975,"name":"Khatt","duration":29},{"id":158978,"name":"Nobody Likes Sad Son","duration":29},{"id":834635,"name":"Sad Msg Tone","duration":5},{"id":340462,"name":"Sunny Deol Sad","duration":29},{"id":1229870,"name":"Arabic Sad Song","duration":23},{"id":852222,"name":"Heart Broken","duration":28},{"id":1335142,"name":"Sad-theme","duration":23},{"id":916064,"name":"Tujhe Bhula Diya- Lv","duration":28},{"id":1284549,"name":"Bu Wan Mei","duration":29},{"id":1028022,"name":"I miss you","duration":29},{"id":121241,"name":"Pavitra Rishta Sad","duration":29},{"id":1307946,"name":"Ishq Na Violin","duration":26},{"id":974672,"name":"7aga Amr","duration":26},{"id":286776,"name":"Romantic Sea","duration":16},{"id":866267,"name":"Sad Music","duration":19},{"id":821616,"name":"Tujhe Bhula Piano","duration":22},{"id":880111,"name":"Ma6lob 7ob Jded","duration":27},{"id":1092350,"name":"aoladna akbadna","duration":29},{"id":993682,"name":"Mein Tenu Samjhavan","duration":29},{"id":1008552,"name":"Soft Lovee","duration":13},{"id":47150,"name":"Sad Piano","duration":28},{"id":932365,"name":"Sayonee","duration":23},{"id":1353594,"name":"Memories","duration":29},{"id":943620,"name":"Zindagi Bewafa Hai Y","duration":29},{"id":1101058,"name":"Ek Villain Sad BGM","duration":29},{"id":846905,"name":"Aadat Pinkstone","duration":23},{"id":1123204,"name":"Game of thrones sad4","duration":26},{"id":960780,"name":"Tada Tadap Ke -","duration":29},{"id":875489,"name":"Broken Heart","duration":28},{"id":173089,"name":"Slow3","duration":15},{"id":224049,"name":"Qas","duration":10},{"id":89669,"name":"Brighter Than Sun","duration":18},{"id":1291996,"name":"That Is Special","duration":13},{"id":1028019,"name":"Dreaming","duration":29},{"id":192307,"name":"First Glance Flute","duration":29},{"id":193605,"name":"El 3ar","duration":29},{"id":1221296,"name":"Tere Naina Cc2c","duration":27},{"id":923653,"name":"Sad Tere Yaadon Se","duration":19},{"id":908583,"name":"Beete Lamhe","duration":16},{"id":12569,"name":"Sad Expressions","duration":16},{"id":340427,"name":"Sad Bansuri","duration":28},{"id":893996,"name":"Tu Mane","duration":29},{"id":1198814,"name":"Saturn- La La","duration":27},{"id":1363083,"name":"Cool Chimes","duration":25},{"id":961090,"name":"Sad Music","duration":29},{"id":952963,"name":"Shanghai Sad","duration":26},{"id":104479,"name":"Er Hu Music","duration":29},{"id":833412,"name":"Arabic Sad-super Sad","duration":28},{"id":909778,"name":"Sad Love Song2012","duration":26},{"id":1293498,"name":"Rule Of Rose Sad","duration":11},{"id":216491,"name":"Chevy","duration":29},{"id":978384,"name":"Assassin Creed Sad","duration":29},{"id":832688,"name":"Digital Bird Flute","duration":28},{"id":972217,"name":"Sad Love Song","duration":29},{"id":142564,"name":"Darko Lazic","duration":29},{"id":797512,"name":"Tanhai","duration":18},{"id":1127840,"name":"down time exented","duration":27},{"id":778379,"name":"Atif","duration":28},{"id":813500,"name":"Man Ke Mat Pe","duration":28},{"id":1221294,"name":"Raaz2","duration":21},{"id":1242310,"name":"Love Sadaaaaaa","duration":29},{"id":289244,"name":"Lost Wings","duration":29},{"id":922147,"name":"Sultan Mirza Sad","duration":28},{"id":910803,"name":"Sad-turkish","duration":29},{"id":981356,"name":"Kiss Raste","duration":29},{"id":861231,"name":"Teri Meri Sad","duration":28},{"id":1266625,"name":"Sadmusic","duration":29},{"id":163330,"name":"Laharl","duration":24},{"id":1048334,"name":"Sad Violin Air Horn","duration":22},{"id":832157,"name":"Salman Hello","duration":29},{"id":834020,"name":"Bin Tere Sad-2011","duration":28},{"id":1318192,"name":"Sad Piano","duration":28},{"id":151955,"name":"Romantic Sad New","duration":28},{"id":1168603,"name":"Gang signs","duration":30},{"id":46870,"name":"Sad Melody","duration":17},{"id":1172928,"name":"Sad Music","duration":29},{"id":825479,"name":"Sad Message 2012","duration":29},{"id":161370,"name":"Unai Neengi Ennaalum","duration":27},{"id":1283639,"name":"Avni Pub Tone","duration":29},{"id":1234403,"name":"A Hob Tani","duration":28},{"id":315412,"name":"Most Sad Tone 4ever","duration":11},{"id":341245,"name":"Kaise Mein Kahun Tuj","duration":29},{"id":881278,"name":"Kaisi Ye Judai Hai","duration":29},{"id":872158,"name":"Ya-li-li","duration":18},{"id":894002,"name":"Liberty","duration":29},{"id":873568,"name":"Sad Love Latest","duration":29},{"id":211305,"name":"Sad Tone 2011","duration":9},{"id":172602,"name":"Fondo Flamenco","duration":29},{"id":839529,"name":"Sad Remix Tone","duration":16},{"id":905110,"name":"Gal Sun Le Female","duration":21},{"id":282625,"name":"Sad Atif Aslam","duration":29},{"id":1033961,"name":"tum hi ho piano","duration":29},{"id":219692,"name":"Sad Tone","duration":22},{"id":895141,"name":"Piya O Re Piya Sad","duration":29},{"id":177138,"name":"Sad Melody","duration":26},{"id":1362002,"name":"Atif - Kaun Hoon May","duration":29},{"id":824686,"name":"Super Sad Arab","duration":27},{"id":365241,"name":"New Most  Sad Flute","duration":29},{"id":946480,"name":"Love Hurts","duration":28},{"id":1288262,"name":"Bas Ek Pal","duration":29},{"id":1047757,"name":"Preet instrumental","duration":29},{"id":106279,"name":"Zeit Zu Leben","duration":24},{"id":941407,"name":"Zindagi Bewafa Sad","duration":24},{"id":843996,"name":"Sad Bansuri Instr","duration":29},{"id":83852,"name":"Don't Go Love","duration":28},{"id":1014401,"name":"Alai Sad","duration":23},{"id":344800,"name":"Sad Sad Violen","duration":28},{"id":836058,"name":"Awesum Flute","duration":29},{"id":1327791,"name":"Dil Tod Ke Mat Jaiyo","duration":29},{"id":380575,"name":"Secret Love","duration":29},{"id":342802,"name":"Violin","duration":9},{"id":907471,"name":"Sad Love Tone","duration":27},{"id":816780,"name":"Sad Yeh Dil Aashiqan","duration":26},{"id":1149650,"name":"kelo kezeb","duration":29},{"id":826904,"name":"Sad Whistle","duration":28},{"id":917939,"name":"Heart Breaking Song","duration":29},{"id":283063,"name":"Flute  Violin Sad","duration":28},{"id":275875,"name":"Sad Hindi","duration":19},{"id":1285355,"name":"Rajakiayegi Barat","duration":29},{"id":800784,"name":"Soft Sad Bollywood","duration":28},{"id":822157,"name":"Yar Mangyasi Sad Ton","duration":29},{"id":157849,"name":"I Ask Sky","duration":29},{"id":125531,"name":"Romantic Sad","duration":29},{"id":328575,"name":"Sad Guitar","duration":28},{"id":325213,"name":"Sad","duration":25},{"id":882301,"name":"Sad Akasha Ganga","duration":29},{"id":141186,"name":"Abhay New Sad Tune","duration":29},{"id":1007373,"name":"Very Sad Tone 4","duration":22},{"id":838476,"name":"Choti Bahu2","duration":29},{"id":1042971,"name":"awel mara Music","duration":14},{"id":976595,"name":"Ver Touching Tone","duration":28},{"id":857293,"name":"I Love You My Angel","duration":14},{"id":112047,"name":"Tamer 3ashor","duration":29},{"id":1340589,"name":"Bommarillu","duration":26},{"id":235234,"name":"Mehsoos","duration":29},{"id":288078,"name":"Woman Warrior","duration":28},{"id":967093,"name":"Fading Away","duration":24},{"id":342638,"name":"Bommarilu","duration":16},{"id":75096,"name":"Wherever You Go-RC Week 204","duration":29},{"id":937158,"name":"Naina Re Ishq","duration":28},{"id":220762,"name":"Arabic New 2011","duration":29},{"id":1297355,"name":"Tu Jaane Naaapkgk","duration":29},{"id":1118947,"name":"Flute Love Sad Happy","duration":28},{"id":1280624,"name":"Sanse Kho Gai","duration":20},{"id":874641,"name":"Hello Karbala Music","duration":29},{"id":128148,"name":"Boys Sad Vivek","duration":7},{"id":1298704,"name":"Bengali Sad Ever","duration":29},{"id":1267432,"name":"Main Hoon Na Violin","duration":26},{"id":1053740,"name":"Bang Bang Best Music","duration":18},{"id":1338178,"name":"Bhulana Nahi","duration":29},{"id":950876,"name":"Emptiness Ringer","duration":23},{"id":1187598,"name":"D Conan","duration":28},{"id":1045990,"name":"NEW RNB SAD BEAT","duration":29},{"id":955306,"name":"Arabic Nassib","duration":28},{"id":886756,"name":"Emptiness 2012","duration":28},{"id":121122,"name":"Nice Sad Tune","duration":29},{"id":863360,"name":"Dil Diya Hai","duration":19},{"id":972580,"name":"Delnavazan Sad Tone","duration":24},{"id":1027515,"name":"Amazing Piano","duration":29},{"id":1306657,"name":"Sad Naruto Song","duration":25},{"id":289322,"name":"Tears","duration":29},{"id":1013085,"name":"Tamil","duration":10},{"id":1290257,"name":"Merrychristmas Part2","duration":28},{"id":861316,"name":"Saddest Tone","duration":26},{"id":157329,"name":"Uvies Nice Song","duration":27},{"id":1276336,"name":"No1 Saddest Tone","duration":29},{"id":170052,"name":"Emotional Tone","duration":28},{"id":1031339,"name":"HIGHWAY INSTRUMENTAL","duration":23},{"id":116407,"name":"Tamil Kavithai","duration":29},{"id":1042366,"name":"New Ring IOS8","duration":27},{"id":828206,"name":"Alone Sad","duration":29},{"id":81432,"name":"Sad Hit - Do dil main duri ho gai - hit","duration":29},{"id":1362170,"name":"Zindagi Ne","duration":29},{"id":798678,"name":"Sad Violen","duration":18},{"id":1349552,"name":"Tenu Pyar Bathera","duration":22},{"id":1282768,"name":"Dilbar","duration":25},{"id":911803,"name":"Mr Krabs Sad Tone","duration":21},{"id":120245,"name":"Spider35","duration":26},{"id":286138,"name":"Morey Saiya","duration":21},{"id":267213,"name":"Sad","duration":29},{"id":1000618,"name":"Best Harmonium","duration":16},{"id":873560,"name":"Latest Sad","duration":29},{"id":1322372,"name":"Sad Tune","duration":28}]}