{"queryTime":"0 Seconds","totalCount":522,"pageNumber":1,"perPage":200,"pageCount":200,"data":[{"id":276909,"name":"Heaven","duration":29},{"id":972710,"name":"Team Fortress 2","duration":2},{"id":350465,"name":"Desparado","duration":29},{"id":1175074,"name":"Ah Vaina","duration":1},{"id":344128,"name":"Spanish Giutar2010","duration":19},{"id":1283177,"name":"Tiene Mens Voz Mujer","duration":4},{"id":37578,"name":"We No Speak Americano - Spanish","duration":29},{"id":140235,"name":"Nokia Tune Spanish","duration":28},{"id":1357695,"name":"Spanish Guitar","duration":28},{"id":878952,"name":"Hayyo Hayyo Starting","duration":28},{"id":1213854,"name":"Bailar","duration":29},{"id":280479,"name":"Noha-tucafe","duration":28},{"id":1193560,"name":"Power Rangers Bip","duration":1},{"id":53537,"name":"Spanish_Guitar","duration":28},{"id":1003734,"name":"Suspenseful Romantic","duration":29},{"id":1334921,"name":"Goal","duration":19},{"id":172163,"name":"Conquistador","duration":10},{"id":1174573,"name":"Willy Wonka","duration":11},{"id":821067,"name":"Spanish Aatif Maula","duration":16},{"id":1040042,"name":"MInions Los chones","duration":29},{"id":1330268,"name":"Spanish Guitar","duration":26},{"id":1172245,"name":"Huevo Contesta","duration":4},{"id":292029,"name":"Asafata Llamada","duration":7},{"id":217474,"name":"Spanish Guitar","duration":24},{"id":66376,"name":"Nokia Spanish","duration":29},{"id":889867,"name":"Camila Nee Evdyanu","duration":29},{"id":217677,"name":"Beautiful Spanish","duration":28},{"id":941537,"name":"Spanish Guitar Awsm","duration":28},{"id":862201,"name":"Corazon Contento","duration":16},{"id":872674,"name":"Sweet Spanish","duration":25},{"id":1003735,"name":"Classic Guitar","duration":29},{"id":1196151,"name":"Lealtad Es Entrega","duration":7},{"id":281345,"name":"Romantic Guitar","duration":17},{"id":314976,"name":"Spanish Guitar","duration":28},{"id":1205579,"name":"Clarines Del Real","duration":16},{"id":288091,"name":"Spanish Love Soung","duration":29},{"id":1186853,"name":"Sms Spanish","duration":4},{"id":386390,"name":"Spanish Anthem","duration":23},{"id":253355,"name":"Spanish Guitar","duration":23},{"id":371956,"name":"Kingfisher Spanish","duration":11},{"id":350531,"name":"Tu Munca","duration":20},{"id":998463,"name":"Reggaeton Piece","duration":9},{"id":1161920,"name":"Anna Bourma 2000","duration":18},{"id":1242190,"name":"Luis Thriller","duration":29},{"id":1003732,"name":"Beautiful Guitar","duration":29},{"id":1312677,"name":"Romanian Jokero","duration":29},{"id":1174650,"name":"Panadero","duration":21},{"id":367014,"name":"Spanish Good Morning","duration":22},{"id":935296,"name":"Ricky Spanish","duration":4},{"id":83522,"name":"Spanish Guitar","duration":24},{"id":343539,"name":"Spanish Nights","duration":29},{"id":1105922,"name":"ds667 spanish 1","duration":10},{"id":93986,"name":"Sacame del Bolsillo","duration":7},{"id":1211259,"name":"People Smiles","duration":22},{"id":291787,"name":"Spanish Baby","duration":9},{"id":167207,"name":"Americano Jarodee","duration":29},{"id":1205587,"name":"Intel Side","duration":3},{"id":1176317,"name":"Nice","duration":29},{"id":347358,"name":"Te Amo","duration":15},{"id":781139,"name":"Magios Song","duration":27},{"id":1032266,"name":"Romantic Guitar","duration":29},{"id":47980,"name":"Spanish Guitar","duration":10},{"id":1180983,"name":"Compadre Huevo","duration":3},{"id":1191453,"name":"Spanish Pick It Up","duration":4},{"id":825980,"name":"Atif New Part 3","duration":28},{"id":1155686,"name":"PROBLEMAS","duration":1},{"id":1238299,"name":"Aviso Mensaje","duration":5},{"id":1161364,"name":"David H-Spanish Way","duration":30},{"id":1207442,"name":"Guitar - Spanish","duration":22},{"id":949471,"name":"Tastes Like Chocolat","duration":15},{"id":1365011,"name":"Guitar Romance","duration":22},{"id":880313,"name":"Spanish Inquisition","duration":27},{"id":1003733,"name":"Romantic Guitar","duration":29},{"id":1260786,"name":"Noche Del Amor","duration":29},{"id":386285,"name":"El Mariachi","duration":28},{"id":1131173,"name":"Cartman-No no no","duration":2},{"id":1187621,"name":"Como Puerco","duration":10},{"id":851910,"name":"Spanish Guitar","duration":28},{"id":16981,"name":"Tango Flamenco","duration":28},{"id":382557,"name":"Spanish Gutiar","duration":29},{"id":845441,"name":"Kothay Uttay","duration":29},{"id":207932,"name":"Spanish Nokia","duration":28},{"id":1049017,"name":"Breaking Bad","duration":27},{"id":1003730,"name":"Romantic Spanish","duration":29},{"id":1205586,"name":"Al Cuerno","duration":16},{"id":120457,"name":"Spanish Music","duration":28},{"id":314330,"name":"Spanish Sms","duration":4},{"id":154107,"name":"Summers End","duration":25},{"id":945646,"name":"Spanish Strings","duration":29},{"id":1189229,"name":"Ya No Llores","duration":26},{"id":1355470,"name":"Andermay - Miami 1","duration":25},{"id":1239466,"name":"Willy Wonka Spanish","duration":29},{"id":962825,"name":"Olympic Beach Volley","duration":5},{"id":1280508,"name":"Lele Maza In Spanish","duration":23},{"id":1263780,"name":"Remix Nokia","duration":28},{"id":1023796,"name":"Romantic Guitar","duration":29},{"id":335165,"name":"19 Dias Y 500 Noches","duration":13},{"id":878926,"name":"Omanathinkal Remaked","duration":28},{"id":262570,"name":"Espaola","duration":3},{"id":299146,"name":"Desperado","duration":23},{"id":143528,"name":"Corre Caminos","duration":19},{"id":997181,"name":"Spanish Accoustic","duration":27},{"id":1190137,"name":"Rise Up-msg","duration":20},{"id":947297,"name":"Spanish Guitar","duration":29},{"id":287496,"name":"Spanish Guitar","duration":13},{"id":76130,"name":"She is my  wolf - RC Week 200","duration":29},{"id":925226,"name":"Spanish Guitar House","duration":29},{"id":869133,"name":"Flamingo Guitar","duration":7},{"id":1297291,"name":"Spanish","duration":18},{"id":1018910,"name":"Savages 2012 Movie","duration":29},{"id":331829,"name":"Estupida","duration":1},{"id":821250,"name":"Aatif Maula Spanish4","duration":29},{"id":1205584,"name":"Fenomeno","duration":3},{"id":914423,"name":"Kiero Mi Cosa","duration":11},{"id":805131,"name":"Guitar Nokia  Spain","duration":28},{"id":348571,"name":"Spanish","duration":8},{"id":1220907,"name":"Feliz Grupo Rojo","duration":29},{"id":1003729,"name":"Romantic Spanish","duration":29},{"id":1206366,"name":"Relojito Locco","duration":29},{"id":355103,"name":"Sarvam Theme","duration":16},{"id":129157,"name":"Spanish Guitar","duration":28},{"id":1240976,"name":"Padre Nuestro 1","duration":29},{"id":35815,"name":"Tu Cuerpo - Spanish","duration":29},{"id":937870,"name":"Tu Eres La Causante","duration":8},{"id":218469,"name":"Spanishguitar","duration":11},{"id":48619,"name":"spanish","duration":23},{"id":1039350,"name":"Rabab 2015","duration":29},{"id":1039653,"name":"Gul Panra","duration":29},{"id":292107,"name":"Kiko Callate","duration":6},{"id":1286313,"name":"The Most Envolved","duration":27},{"id":870419,"name":"Gayyy","duration":2},{"id":1176480,"name":"Despertador Cruda","duration":5},{"id":1100342,"name":"Guantanamera","duration":28},{"id":344363,"name":"Spanish Gitar-violon","duration":25},{"id":142146,"name":"Stylish Music","duration":29},{"id":1120031,"name":"vd tiene un correo","duration":5},{"id":247574,"name":"Me Tienes Q Olvidar","duration":24},{"id":344438,"name":"Armic","duration":28},{"id":35084,"name":"spanish","duration":8},{"id":1005930,"name":"Spanish Samba","duration":29},{"id":1036682,"name":"guitar mexico","duration":10},{"id":873355,"name":"Kllat Kllat","duration":3},{"id":1131172,"name":"Cartman-Mis bolas","duration":3},{"id":807797,"name":"Spanish","duration":10},{"id":1217830,"name":"Baila Chiki Chiki","duration":23},{"id":187647,"name":"Most Romantic Guitar","duration":23},{"id":250026,"name":"Spanish 3","duration":29},{"id":117967,"name":"Spanish Guitar","duration":27},{"id":371544,"name":"Spanish Fly","duration":22},{"id":290051,"name":"Papirring","duration":21},{"id":59124,"name":"spanish","duration":27},{"id":1197485,"name":"Bobo","duration":5},{"id":948348,"name":"Spanishguitar","duration":28},{"id":887716,"name":"Spanish Rose","duration":28},{"id":1184141,"name":"Tu Me Llamastes","duration":27},{"id":1015153,"name":"Spanish Guitar","duration":29},{"id":336694,"name":"Spanish-zorro","duration":24},{"id":1204581,"name":"Burbujas De Amor","duration":29},{"id":881420,"name":"Flute Mixed","duration":23},{"id":1181897,"name":"Tu Mujer Llama","duration":29},{"id":345625,"name":"Llamada De Un Culito","duration":4},{"id":133817,"name":"Spanish Guitar","duration":28},{"id":1187623,"name":"Canaca","duration":9},{"id":150778,"name":"Marcello","duration":26},{"id":1120993,"name":"Omg","duration":29},{"id":367819,"name":"Freddy Kruger","duration":23},{"id":1178100,"name":"Pina Cola","duration":20},{"id":223327,"name":"Bien O Mal","duration":29},{"id":1240980,"name":"Padre Nuestro 3","duration":29},{"id":1028691,"name":"spanish guitar mix","duration":29},{"id":1301225,"name":"Mexican Guitar","duration":29},{"id":844516,"name":"Fresquibiris","duration":29},{"id":250089,"name":"Cara A Cara Spanish","duration":28},{"id":890955,"name":"Spanish Sound","duration":28},{"id":1087864,"name":"spanish guitar","duration":15},{"id":1114313,"name":"Cantena Yell","duration":2},{"id":1299008,"name":"Cholito Music","duration":29},{"id":825964,"name":"Atif New Part 1","duration":28},{"id":368669,"name":"Pero Ke Hombre","duration":3},{"id":60069,"name":"Ketchup","duration":30},{"id":1015034,"name":"Spanish Guitar","duration":29},{"id":972729,"name":"Medic Team Fortress2","duration":5},{"id":1190830,"name":"Homero - Bar De Moe","duration":11},{"id":347457,"name":"Llevese Este Celular","duration":5},{"id":1240979,"name":"Padre Nuestro 2","duration":29},{"id":1196989,"name":"Eres Tan Fea","duration":29},{"id":36396,"name":"Espaniard-RC Week 200","duration":25},{"id":149749,"name":"Porompompero","duration":22},{"id":59564,"name":"En La Oscuridad {Spanish}","duration":29},{"id":1190599,"name":"Mil Caminos Mil Ruta","duration":25},{"id":15957,"name":"Un Amor","duration":27},{"id":1176316,"name":"Esta Sonando","duration":9},{"id":927987,"name":"Spanish Guitar","duration":28},{"id":99906,"name":"spanish","duration":28},{"id":839121,"name":"Dhoom2 Corazon","duration":29},{"id":1226270,"name":"Homer - Lsf","duration":12},{"id":967115,"name":"Spanish Dopefish","duration":16},{"id":300109,"name":"Psych Spanish Theme","duration":16},{"id":948324,"name":"Sweetestguitar","duration":20},{"id":367936,"name":"Ring Contesta","duration":22}]}