{"queryTime":"2 Seconds","totalCount":744,"pageNumber":1,"perPage":200,"pageCount":200,"data":[{"id":1140189,"name":"Mama mea e florareas","duration":29},{"id":1312992,"name":"Instrumental","duration":29},{"id":87394,"name":"instrumental 3","duration":28},{"id":1255576,"name":"Sevda","duration":27},{"id":1245442,"name":"Xav Txog Koj2","duration":29},{"id":154193,"name":"Dance","duration":21},{"id":42557,"name":"Gummi Time - RC Week 142","duration":29},{"id":1120907,"name":"Simon D - Metronome","duration":29},{"id":1116627,"name":"HyunA - Roll Deep","duration":10},{"id":68785,"name":"The Edge Of Glory","duration":27},{"id":57802,"name":"mario super bros","duration":28},{"id":1002677,"name":"Zindagi Do Pal Ki","duration":18},{"id":1178935,"name":"The Best Song","duration":29},{"id":1314980,"name":"Ilian - Tupalka","duration":21},{"id":80323,"name":"tone sms","duration":3},{"id":1305237,"name":"Guitar By Dsp","duration":24},{"id":40478,"name":"merry christmas","duration":16},{"id":153421,"name":"Soft Music","duration":29},{"id":334934,"name":"News - Good News","duration":28},{"id":1198687,"name":"Fabulous Cat Intro","duration":21},{"id":1130163,"name":"Russian Roulette","duration":29},{"id":292254,"name":"Crazy","duration":11},{"id":1146735,"name":"DayVon - Emotions","duration":29},{"id":275689,"name":"7 Days","duration":24},{"id":1117617,"name":"Free Somebody - 5","duration":18},{"id":1121884,"name":"Seventeen-Very Nice","duration":19},{"id":1116629,"name":"HyunA - Roll Deep 3","duration":4},{"id":1139838,"name":"Iubirea noastra","duration":29},{"id":1138078,"name":"Sophiesofisticata","duration":29},{"id":87950,"name":"instrumental 11","duration":29},{"id":881216,"name":"Erinto - Touch","duration":25},{"id":1281959,"name":"Guitar","duration":9},{"id":1106823,"name":"Alpha Beats 2016","duration":14},{"id":85064,"name":"tonight","duration":21},{"id":986071,"name":"Boss  Music","duration":29},{"id":18984,"name":"Time After Time = always b ur friend","duration":30},{"id":333483,"name":"Karizma Minavash","duration":28},{"id":1038105,"name":"As Long","duration":18},{"id":55362,"name":"silent night","duration":20},{"id":1303736,"name":"Limca 2009","duration":29},{"id":979181,"name":"Party And Bullsh","duration":23},{"id":85124,"name":"firework","duration":4},{"id":87450,"name":"tarantella","duration":14},{"id":223832,"name":"I Dont Know Why","duration":29},{"id":1137971,"name":"Las-o","duration":29},{"id":1320482,"name":"2010 Effects","duration":23},{"id":1117005,"name":"EXO - Lightsaber 1","duration":13},{"id":46910,"name":"instrumental 2","duration":28},{"id":154180,"name":"Dance","duration":18},{"id":1309695,"name":"New Desi Beat","duration":21},{"id":87587,"name":"bells ring 3","duration":28},{"id":70770,"name":"Poison","duration":27},{"id":1170346,"name":"simple guitar","duration":30},{"id":1124037,"name":"Musical Pop","duration":2},{"id":28868,"name":"Dancehall Queen","duration":29},{"id":223331,"name":"Music Medley","duration":27},{"id":94235,"name":"Next To Me - RC Week 208","duration":29},{"id":978895,"name":"Ella","duration":27},{"id":1124476,"name":"fx - All Mine","duration":15},{"id":1117016,"name":"Xiumin - Lightsaber","duration":2},{"id":1256284,"name":"Murarisuto","duration":29},{"id":45966,"name":"tarantella","duration":28},{"id":1122640,"name":"Seventeen-Very Nice","duration":20},{"id":70663,"name":"tonight","duration":15},{"id":87396,"name":"instrumental 1","duration":25},{"id":814283,"name":"Allah K Banday Music","duration":19},{"id":1234526,"name":"Strong Baby","duration":29},{"id":1140500,"name":"Anda Adam - My Way","duration":29},{"id":1198503,"name":"Cool","duration":29},{"id":1039125,"name":"Easy","duration":16},{"id":1044782,"name":"Treat You Right","duration":29},{"id":1200395,"name":"Ade","duration":29},{"id":938510,"name":"Trickhay Faster","duration":29},{"id":219480,"name":"New","duration":29},{"id":899274,"name":"Agentvinod-exclusive","duration":20},{"id":76493,"name":"mix 107","duration":28},{"id":57798,"name":"kankan super mario bros","duration":28},{"id":1116616,"name":"Got7 - If You Do","duration":14},{"id":76608,"name":"mix 102","duration":28},{"id":1146961,"name":"friends","duration":29},{"id":1164646,"name":"IBO v2 - 3K Thanks","duration":30},{"id":87948,"name":"instrumental 13","duration":28},{"id":1357987,"name":"Ave Maria","duration":29},{"id":192356,"name":"Dance Music","duration":29},{"id":966270,"name":"Same Heart","duration":29},{"id":901117,"name":"Tone Of The Day","duration":25},{"id":95804,"name":"remix 931","duration":29},{"id":807190,"name":"Cool Ring 2010","duration":9},{"id":55582,"name":"remix last christmas","duration":28},{"id":1291097,"name":"Kangna","duration":25},{"id":240592,"name":"Cute Music","duration":23},{"id":875269,"name":"Popular","duration":4},{"id":1356920,"name":"Gin Gin Saray","duration":21},{"id":72206,"name":"bells ring","duration":28},{"id":1130161,"name":"Russian Roulette","duration":14},{"id":72258,"name":"melody","duration":17},{"id":1121890,"name":"Seventeen-Very Nice","duration":29},{"id":247134,"name":"Nice Ringtone","duration":29},{"id":87621,"name":"melody","duration":29},{"id":1138226,"name":"Nu Sunt","duration":29},{"id":1259437,"name":"Dam Dadi Doo","duration":29},{"id":85113,"name":"\u00c3\u2026\u00e2\u20ac\u00baniadanie do \u00c3\u2026\u00e2\u20ac\u0161\u00c3\u0192\u00c2\u00b3\u00c3\u2026\u00c2\u00bcka","duration":29},{"id":1105597,"name":"NEW AGE TONE 2016","duration":29},{"id":1121888,"name":"Seventeen-Very Nice","duration":29},{"id":46913,"name":"instrumental 1","duration":29},{"id":55383,"name":"ave maria","duration":29},{"id":807187,"name":"Beautiful Ringtone","duration":28},{"id":1223355,"name":"Miso Soup","duration":29},{"id":1296499,"name":"Saali Tu Maani Nahi","duration":19},{"id":85146,"name":"Vallee de larmes","duration":27},{"id":155320,"name":"Cl0cks M1x","duration":28},{"id":1139827,"name":"Safari j balvin","duration":29},{"id":256627,"name":"Kamalkuthusong","duration":29},{"id":70692,"name":"Crack Music","duration":28},{"id":775864,"name":"Best Ringtone","duration":12},{"id":77125,"name":"RNB ELECTRO INTRO","duration":27},{"id":36088,"name":"Just dance","duration":28},{"id":55595,"name":"crazy  bells 41","duration":28},{"id":70807,"name":"My Feelings For You","duration":28},{"id":1205504,"name":"Nice Ringtone","duration":29},{"id":1185503,"name":"Tere Bina","duration":9},{"id":924055,"name":"Deciciones Demujeres","duration":24},{"id":1244482,"name":"A U","duration":29},{"id":56647,"name":"Alvin","duration":29},{"id":1121027,"name":"Beast - Butterfly","duration":29},{"id":40256,"name":"tone sms","duration":9},{"id":178218,"name":"Soft Music","duration":29},{"id":1158362,"name":"inna ruleta","duration":20},{"id":1030959,"name":"folk pop","duration":23},{"id":87967,"name":"turkish","duration":28},{"id":1130166,"name":"Love Paint","duration":28},{"id":925719,"name":"Electro Space","duration":27},{"id":1138081,"name":"I WONDER WHY","duration":29},{"id":989760,"name":"80s Music","duration":25},{"id":85532,"name":"ring 5","duration":1},{"id":1305239,"name":"We Rock","duration":27},{"id":87567,"name":"sweet christmas","duration":16},{"id":1137852,"name":"Ochii ia verzi","duration":29},{"id":985433,"name":"Sony Purity Tone","duration":8},{"id":55368,"name":"tone sms","duration":3},{"id":335689,"name":"I Za Na I Zu Ki","duration":29},{"id":76742,"name":"mix 1","duration":13},{"id":55617,"name":"bells christmas remix 6","duration":27},{"id":1138229,"name":"Canta cucu","duration":27},{"id":979199,"name":"Roly Poly Tones","duration":27},{"id":1117631,"name":"Luna-Free Somebody 2","duration":29},{"id":1251610,"name":"Romania","duration":29},{"id":96256,"name":"mix 107","duration":28},{"id":1137869,"name":"Im Blue","duration":29},{"id":1028544,"name":"Nice Music","duration":29},{"id":1117017,"name":"Kai - Lightsaber","duration":2},{"id":789742,"name":"Mahive-very Cool","duration":29},{"id":67680,"name":"dragon ball z","duration":29},{"id":1234926,"name":"I Lay Yee","duration":23},{"id":1211902,"name":"Lontano Huga Flame","duration":21},{"id":55351,"name":"tone sms 325","duration":5},{"id":979123,"name":"Great Tones","duration":26},{"id":897718,"name":"Has Ho Gaya New","duration":18},{"id":249256,"name":"Can Gac Trong","duration":29},{"id":1116994,"name":"Solji - Hot Pink","duration":2},{"id":1116997,"name":"Hani - Hot Pink","duration":17},{"id":70798,"name":"like i love you","duration":29},{"id":1117611,"name":"Free Somebody -Intro","duration":9},{"id":1341897,"name":"Djina Stoeva","duration":29},{"id":217146,"name":"No Se De Ella","duration":14},{"id":68929,"name":"ROCKIN MUSIC YES","duration":7},{"id":70773,"name":"\u00c3\u2026\u00e2\u20ac\u00baniadanie do \u00c3\u2026\u00e2\u20ac\u0161\u00c3\u0192\u00c2\u00b3\u00c3\u2026\u00c2\u00bcka","duration":29},{"id":162451,"name":"New Tone 2011","duration":12},{"id":1215026,"name":"My Hime","duration":20},{"id":1282625,"name":"Theres 1 Thing","duration":10},{"id":1305232,"name":"Dj Bass","duration":28},{"id":67080,"name":"Back street boys ...as long as u love me","duration":26},{"id":1157708,"name":"indian Hot Dance","duration":8},{"id":315493,"name":"We Are - One Piece","duration":28},{"id":1157312,"name":"Tsunami - Music Box","duration":24},{"id":878485,"name":"Happy Holidays","duration":25},{"id":85291,"name":"mix 3","duration":29},{"id":72313,"name":"melody 1","duration":27},{"id":898243,"name":"Best Music 2012","duration":7},{"id":895954,"name":"Romantic","duration":25},{"id":1106822,"name":"2016 Epic Music HOT","duration":15},{"id":335672,"name":"Winter Sleep","duration":29},{"id":85221,"name":"ring 73","duration":28},{"id":1118110,"name":"EXID - LIE - Music","duration":6},{"id":162540,"name":"Terminator","duration":14},{"id":70885,"name":"who that chick","duration":29},{"id":1135017,"name":"Lucky One","duration":29},{"id":158998,"name":"Pop - Movie","duration":18},{"id":1191769,"name":"Come Fly With Me","duration":29},{"id":1211006,"name":"Sangeeth","duration":29},{"id":162461,"name":"New 2011","duration":28},{"id":895953,"name":"Tu Hai Dil Mera","duration":19},{"id":76810,"name":"Splash - Rc week 197","duration":30},{"id":45894,"name":"saksofon","duration":27},{"id":85165,"name":"who that chick","duration":29},{"id":909392,"name":"Need To Be Strong","duration":29},{"id":778800,"name":"Airtel Silent Music","duration":17},{"id":154222,"name":"Dance","duration":28},{"id":1258246,"name":"Airtel Bird Remix","duration":19},{"id":67166,"name":"Hey there Delilah","duration":29}]}