{"queryTime":"3 Seconds","totalCount":239,"pageNumber":1,"perPage":200,"pageCount":200,"data":[{"id":1153068,"name":"Classical Remix","duration":30},{"id":913015,"name":"Hold That","duration":25},{"id":790531,"name":"Nokia Slow Electro","duration":2},{"id":960148,"name":"Dubstep","duration":25},{"id":20765,"name":"PnK PnThR - RC Week 208","duration":30},{"id":207752,"name":"Stargate Theme","duration":27},{"id":1026126,"name":"Sun is Out remix","duration":27},{"id":1355165,"name":"Electronic Remix","duration":28},{"id":1324463,"name":"Electrobolly Mix","duration":29},{"id":1137970,"name":"Acid Lines 1","duration":29},{"id":84830,"name":"Holding on","duration":29},{"id":1018251,"name":"Electronic Mix","duration":29},{"id":1029928,"name":"Art of the Dress RMX","duration":26},{"id":149373,"name":"Time2prtnd","duration":29},{"id":1192571,"name":"Demo Remix","duration":16},{"id":55695,"name":"So This is Christmas","duration":29},{"id":1145646,"name":"you got it remix","duration":22},{"id":906056,"name":"Song One","duration":29},{"id":41357,"name":"Beats 4 Jingles - RC Xmas RD 2","duration":28},{"id":1138596,"name":"Papi Chulo1ring","duration":21},{"id":1152448,"name":"Bell Remix","duration":16},{"id":1003254,"name":"Step Up 4 Revolution","duration":26},{"id":1141765,"name":"Water Remix","duration":16},{"id":902204,"name":"G Slow","duration":18},{"id":1141778,"name":"Trap Violin","duration":10},{"id":902181,"name":"Danger","duration":29},{"id":154727,"name":"Sony Ericsson Trance","duration":29},{"id":956013,"name":"Wide-awake-remix","duration":27},{"id":1194102,"name":"Eoe Remix","duration":28},{"id":41946,"name":"Android_Soundx","duration":29},{"id":902183,"name":"All Night Long-vol2","duration":25},{"id":910266,"name":"Lemonakia","duration":20},{"id":1150834,"name":"Cold Hearted","duration":21},{"id":65733,"name":"RatioPadz","duration":30},{"id":1161809,"name":"Youre On","duration":19},{"id":1143625,"name":"Twinkling Intros","duration":15},{"id":1113353,"name":"Pack Up The Louie","duration":26},{"id":22206,"name":"Umbrella House Remix","duration":30},{"id":353149,"name":"Electro Funk","duration":29},{"id":207572,"name":"Electronic Remix","duration":29},{"id":1143626,"name":"Mostly With It","duration":12},{"id":22339,"name":"Rise Up Remix","duration":29},{"id":1179330,"name":"House","duration":28},{"id":95631,"name":"and do you feel scared","duration":30},{"id":131230,"name":"Electronic Remix","duration":17},{"id":1156089,"name":"Rhythm is a Dancer","duration":2},{"id":947976,"name":"Move It","duration":28},{"id":1192891,"name":"Indian Electronic Rm","duration":29},{"id":50517,"name":"Future CC","duration":26},{"id":906099,"name":"Creepyrecords","duration":29},{"id":20590,"name":"Angeline","duration":30},{"id":1098344,"name":"Prayer in C remix","duration":29},{"id":1169702,"name":"Touch - KSHMR","duration":10},{"id":144500,"name":"Baselined Electronic","duration":28},{"id":1138597,"name":"Papi Chulo2ring","duration":19},{"id":66266,"name":"All i no i like you - RC Week 212","duration":29},{"id":1118493,"name":"Aint-No-Lido Remix","duration":29},{"id":902197,"name":"Youfee2","duration":29},{"id":1119337,"name":"Crunk 2015 Remix","duration":29},{"id":1209563,"name":"Electronic Huqa","duration":29},{"id":906077,"name":"Prince Vol2","duration":29},{"id":1143617,"name":"Trumpet Trap","duration":15},{"id":22272,"name":"Final Countdown 2007","duration":30},{"id":1141769,"name":"Slick Vocal Drops","duration":16},{"id":1148117,"name":"Que todo","duration":23},{"id":1153936,"name":"Click-Clock Remix","duration":22},{"id":952004,"name":"When The Rain Fall","duration":27},{"id":902186,"name":"D-frmation","duration":19},{"id":906088,"name":"Capitan Electro","duration":29},{"id":864106,"name":"Deathmarch","duration":20},{"id":352240,"name":"Flat Beat Remix","duration":28},{"id":1154697,"name":"Remix","duration":29},{"id":841011,"name":"Nokia 2011","duration":6},{"id":1199071,"name":"Rnb Trance","duration":29},{"id":902187,"name":"Dream","duration":22},{"id":1093662,"name":"Sorry miss Jackson","duration":29},{"id":1156294,"name":"doe a deer remix","duration":28},{"id":56027,"name":"Beats 4 Jingles - RC Xmas RD 2","duration":28},{"id":905815,"name":"Electro Loco Vol2","duration":18},{"id":1141764,"name":"Even More Cowbell","duration":16},{"id":1143613,"name":"Telephone Trap","duration":15},{"id":1240078,"name":"Mr Turner Remix","duration":18},{"id":1011899,"name":"Glitch Hop","duration":21},{"id":1352949,"name":"Awesum Dj 2010","duration":29},{"id":65707,"name":"Saxophone","duration":27},{"id":1101356,"name":"Hey Mama DISTO REMIX","duration":29},{"id":23602,"name":"Ayo Technology Remix","duration":25},{"id":296706,"name":"Gumismegamix4","duration":28},{"id":21943,"name":"Electronic Mission","duration":28},{"id":905812,"name":"Pkalkbrener Vol2","duration":29},{"id":7366,"name":"Insomnia","duration":30},{"id":42451,"name":"DJ Remix - RC Week 212","duration":29},{"id":41935,"name":"Waka-waka remix","duration":29},{"id":904906,"name":"2012 Best Ringtone","duration":25},{"id":1016398,"name":"Supa Dubstep Track 1","duration":12},{"id":957394,"name":"Stars","duration":29},{"id":1134287,"name":"hands up mix 2017","duration":18},{"id":1274806,"name":"Techno Power Mix","duration":28},{"id":298150,"name":"Remix","duration":29},{"id":1222340,"name":"Dafunk Intro","duration":29},{"id":1165687,"name":"tragedy","duration":30},{"id":132420,"name":"Cool Remix 2011","duration":28},{"id":22108,"name":"Ya Ali Remix Edit 2","duration":30},{"id":42422,"name":"Love, Peace And Grease (BT's Puma Fila 7","duration":30},{"id":1271062,"name":"--- Is Dead Remix","duration":29},{"id":1134577,"name":"Deadmau5 remix","duration":29},{"id":1121394,"name":"You Should Get This","duration":23},{"id":65997,"name":"Android_Soundx","duration":29},{"id":902193,"name":"Todayy","duration":29},{"id":22360,"name":"4 Minutes Electronic Remix","duration":30},{"id":1153847,"name":"Now and Later","duration":23},{"id":1179918,"name":"Fiesta Remix","duration":28},{"id":93750,"name":"Waka-waka remix","duration":29},{"id":999424,"name":"Dj Electronic","duration":22},{"id":1090120,"name":"Skype Call Remix","duration":3},{"id":1247794,"name":"Bass Beat 2009","duration":29},{"id":1154203,"name":"Chill Siren","duration":15},{"id":1158494,"name":"Wolfenstein BoomBoom","duration":27},{"id":66036,"name":"DJ One","duration":30},{"id":905810,"name":"Pkalkbrener Bysy","duration":29},{"id":1229976,"name":"Electronic","duration":29},{"id":1191122,"name":"The Lightnin","duration":28},{"id":1191121,"name":"Sounds Effects","duration":19},{"id":893481,"name":"Samanyolu Tr","duration":29},{"id":902192,"name":"Thx Demo","duration":13},{"id":371185,"name":"2009 Remix","duration":28},{"id":972993,"name":"Chemistry Eric S","duration":29},{"id":1036958,"name":"Miko remix","duration":29},{"id":902196,"name":"Yahel-intaomri","duration":26},{"id":906095,"name":"Electronix By","duration":29},{"id":1274547,"name":"Follow Is Trance","duration":29},{"id":1018946,"name":"Electronic Dubstep","duration":26},{"id":1151715,"name":"Electronic Remix","duration":18},{"id":351727,"name":"Telephone Electronic","duration":29},{"id":1154698,"name":"Robot Matrix","duration":22},{"id":1033094,"name":"Marimba Dubstep 2014","duration":29},{"id":40565,"name":"So This is Christmas","duration":29},{"id":198080,"name":"Dance Remix","duration":28},{"id":1179304,"name":"Gumismegamix2","duration":28},{"id":40621,"name":"Happy Hardstyle Christmas","duration":30},{"id":1271338,"name":"No One Knows","duration":27},{"id":906074,"name":"Song Two","duration":29},{"id":1134286,"name":"new dance 2017","duration":29},{"id":21162,"name":"Club Remix","duration":28},{"id":850117,"name":"Fever Remix","duration":28},{"id":54142,"name":"Future CC","duration":26},{"id":902182,"name":"All Night Long","duration":29},{"id":906102,"name":"Ziggy Prograssive","duration":23},{"id":957392,"name":"Ready","duration":27},{"id":1192575,"name":"Instrumental Mix","duration":21},{"id":1141767,"name":"Sick EDM Beat","duration":16},{"id":42015,"name":"DJ One","duration":30},{"id":71094,"name":"Techno pipes","duration":30},{"id":905813,"name":"Mix Thx","duration":17},{"id":94926,"name":"2010 Best Sound Effect","duration":25},{"id":43365,"name":"ReXeC... I'm Back! - RC week 116","duration":28},{"id":39855,"name":"Varudu Remix By Srikanth","duration":29},{"id":85262,"name":"Techno pipes","duration":30},{"id":50507,"name":"Ghosts N Stuff","duration":29},{"id":1120295,"name":"Adore trap remix","duration":29},{"id":9270,"name":"Bird Hit Mix","duration":12},{"id":54110,"name":"Ghosts N Stuff","duration":29},{"id":20958,"name":"Electronic Remix","duration":29},{"id":902185,"name":"Trtrtr","duration":13},{"id":44134,"name":"2010 Best Sound Effect","duration":25},{"id":1166779,"name":"MIA Ringtone","duration":30},{"id":55026,"name":"Electronic Remix","duration":29},{"id":1143621,"name":"Drums and Strings","duration":12},{"id":196772,"name":"Kick Us Remix","duration":30},{"id":995366,"name":"Rehab Remix","duration":29},{"id":1050388,"name":"Wrong","duration":15},{"id":352388,"name":"Last Night","duration":23},{"id":370551,"name":"Blade Remix","duration":24},{"id":902189,"name":"Funnysnore","duration":7},{"id":906086,"name":"Capitan Electro","duration":29},{"id":1134288,"name":"new electronica 2017","duration":20},{"id":906101,"name":"Sexycerdo","duration":16},{"id":1007950,"name":"Number One New Remix","duration":18},{"id":54883,"name":"Club Remix","duration":29},{"id":1141766,"name":"Happy Drop","duration":18},{"id":1151718,"name":"Carribean Remix","duration":18},{"id":1235202,"name":"Nokia 2010","duration":29},{"id":1363618,"name":"Electronica Remix","duration":16},{"id":952022,"name":"Make It Go Remix","duration":29},{"id":1163488,"name":"more than you know","duration":30},{"id":1298501,"name":"Super Sound 2010","duration":28},{"id":1163962,"name":"that is why","duration":17},{"id":23370,"name":"Black Magic","duration":22},{"id":800452,"name":"Fashion Theme","duration":29},{"id":905808,"name":"Na Na Na","duration":23},{"id":22564,"name":"Dj Emotion","duration":28},{"id":886033,"name":"Can Can Remix","duration":29},{"id":1153948,"name":"DJ Remix","duration":16},{"id":42410,"name":"All i no i like you - RC Week 212","duration":29},{"id":943738,"name":"By Collapse 2012","duration":27},{"id":779390,"name":"Algerian Warrior","duration":27},{"id":1287324,"name":"Nokia 3310 Remix","duration":28},{"id":297673,"name":"Electronic Life","duration":28},{"id":1329686,"name":"Windows Xp Remix","duration":29},{"id":1274760,"name":"Airtel Awesome Beats","duration":13}]}