{"queryTime":"0 Seconds","totalCount":309,"pageNumber":1,"perPage":199,"pageCount":199,"data":[{"id":890416,"name":"Extrano Mas Que Nunc","duration":29},{"id":105632,"name":"Romantic-song","duration":20},{"id":379613,"name":"Romantic Princess","duration":29},{"id":896670,"name":"Love Song","duration":28},{"id":1222268,"name":"Mujhe Pyaar Hai","duration":29},{"id":225550,"name":"Joseph Attia","duration":29},{"id":998438,"name":"Sweet Romantic","duration":27},{"id":1315348,"name":"Romantic Song For U","duration":28},{"id":185070,"name":"Nancy Nafsyto1","duration":28},{"id":323678,"name":"Hindi Vers Ride It","duration":19},{"id":1320825,"name":"Lovely-song","duration":29},{"id":920212,"name":"Dasi Mere Nall Dil","duration":25},{"id":968536,"name":"Bst Female Tujo Mila","duration":26},{"id":331858,"name":"Romantic Sound","duration":28},{"id":62088,"name":"romantic SoNgTONE","duration":27},{"id":999000,"name":"Unnai Pakkatha Varai","duration":29},{"id":955901,"name":"Thattathin Marayathe","duration":23},{"id":951677,"name":"Talaash Atif","duration":25},{"id":1203052,"name":"Ak Love Duet","duration":14},{"id":1351802,"name":"Baik2 Syg Wav","duration":29},{"id":1278771,"name":"Romntic Song","duration":28},{"id":951343,"name":"I Call It Love","duration":21},{"id":1202393,"name":"Aaja Tujhk Pukaare","duration":29},{"id":931833,"name":"Arabic","duration":29},{"id":817879,"name":"Pal Pal Lovers Lyk","duration":29},{"id":1031526,"name":"kiedy tesknie instru","duration":29},{"id":256178,"name":"Arikilellenkilum Ari","duration":29},{"id":952542,"name":"My Love Song","duration":29},{"id":956337,"name":"Most Romanic Song","duration":23},{"id":1166826,"name":"En Jeevan Song","duration":29},{"id":951673,"name":"Romantic Guitar 2012","duration":27},{"id":1188031,"name":"Oru Venal","duration":29},{"id":968527,"name":"Bst Female Saiyaara","duration":25},{"id":1196291,"name":"In Love Wif You","duration":29},{"id":952072,"name":"Thattathin Marayath","duration":16},{"id":1221693,"name":"Harr Taraff Tou","duration":29},{"id":274657,"name":"Happy Bday","duration":28},{"id":126578,"name":"Vaanam Theme","duration":18},{"id":801035,"name":"Classic Hindi","duration":29},{"id":962823,"name":"Raaz3 Deewana Kr Rha","duration":20},{"id":920659,"name":"Bade Acche Lagte Hai","duration":29},{"id":890523,"name":"Kya Wajah Thi Tere","duration":28},{"id":367351,"name":"Anniversary Song","duration":29},{"id":936751,"name":"English Love Song","duration":26},{"id":1242678,"name":"Maula Mere Maula","duration":29},{"id":811756,"name":"Chori Chori Dil Tera","duration":28},{"id":1268014,"name":"Maahiinstrmntlraaz","duration":28},{"id":185116,"name":"Nancy Emta Hashofk 1","duration":29},{"id":287647,"name":"Arabic Song","duration":17},{"id":185104,"name":"Nancy Bel Hadwa2","duration":29},{"id":884221,"name":"Romantic Song","duration":25},{"id":828400,"name":"Beautiful Song","duration":28},{"id":980473,"name":"Ae Khuda Uska Hi Ban","duration":29},{"id":956366,"name":"Violin Thalavattam","duration":22},{"id":185096,"name":"Nancy Shiekh El Shab","duration":29},{"id":905718,"name":"Krrish Romantic","duration":29},{"id":1148891,"name":"beautiful love song","duration":29},{"id":1237424,"name":"Ba3dek Za3lani","duration":29},{"id":83824,"name":"All I Want Is you","duration":30},{"id":1218985,"name":"Romantic Sound","duration":24},{"id":1171958,"name":"Hiba Tawaji - Hkini","duration":28},{"id":932836,"name":"Romantic Song","duration":29},{"id":1362550,"name":"Ampliphr","duration":21},{"id":994718,"name":"Romantic Love Song","duration":28},{"id":1181793,"name":"Hawa Hawa Aye Hawa","duration":28},{"id":1320894,"name":"Wedding Song","duration":29},{"id":111801,"name":"Romantic","duration":27},{"id":136500,"name":"Sweet Baby","duration":29},{"id":1223733,"name":"Harp Song","duration":10},{"id":1200911,"name":"2ku Ingin Kamu","duration":29},{"id":1222283,"name":"Mongbinhyenvechoanh","duration":18},{"id":289486,"name":"Romantic Song","duration":21},{"id":783913,"name":"Dilibadat","duration":29},{"id":843578,"name":"Best Romantic Song","duration":22},{"id":183647,"name":"Romantic Song","duration":23},{"id":138222,"name":"Kudajadriyil","duration":18},{"id":185079,"name":"Nancy Einy Aliek2","duration":25},{"id":988678,"name":"Pehli Nazar Mein","duration":28},{"id":985638,"name":"Kitna Pyar3 Chahton","duration":28},{"id":968685,"name":"Haga Mestakhabeya","duration":25},{"id":920215,"name":"Dil De Frame Wich","duration":27},{"id":1188723,"name":"Try To Remember","duration":29},{"id":39944,"name":"Jo Jeeta Wohi Sikandar_Chahe tum kuch na","duration":30},{"id":104739,"name":"Kunimonaanglahat","duration":29},{"id":1329831,"name":"Nenu Nenuga","duration":28},{"id":836155,"name":"Romantic Guitar","duration":13},{"id":1251907,"name":"U Are My Everything","duration":29},{"id":982560,"name":"Romantic","duration":28},{"id":865930,"name":"Romantic Song","duration":22},{"id":184796,"name":"Xiao Gui - Twmrs","duration":29},{"id":190907,"name":"Nerai Matha","duration":29},{"id":354394,"name":"A Missing U Song","duration":29},{"id":1175842,"name":"U Are My Song","duration":21},{"id":1282904,"name":"Ye Dil Toh Mila Hai","duration":23},{"id":995067,"name":"Hamada Helal 2012","duration":28},{"id":802976,"name":"Lawn El Bahr","duration":29},{"id":106968,"name":"Vtv","duration":27},{"id":998993,"name":"Romantic Violin Musi","duration":28},{"id":1331421,"name":"Teri - Singh Is King","duration":27},{"id":1085480,"name":"rayna","duration":16},{"id":1301455,"name":"Romantic Music","duration":28},{"id":1329995,"name":"Nescafe Cut Mix","duration":3},{"id":1203935,"name":"Chudi Khanak","duration":28},{"id":138213,"name":"Monchulla Pennale","duration":22},{"id":863286,"name":"Tere Bina","duration":27},{"id":1171959,"name":"Ahmad - Baddi Yak","duration":27},{"id":952547,"name":"Most Romantic","duration":21},{"id":1362170,"name":"Zindagi Ne","duration":29},{"id":1274113,"name":"Nuvvante Ne Chachent","duration":28},{"id":817921,"name":"Romantic Song","duration":29},{"id":1203474,"name":"Chhaliya123","duration":29},{"id":1250146,"name":"Iraqi Song","duration":28},{"id":887723,"name":"Romantic","duration":28},{"id":1284514,"name":"Tu Dissda Awesome","duration":28},{"id":1177587,"name":"Aleipauthy","duration":29},{"id":862650,"name":"Madras Pattinam","duration":16},{"id":1221694,"name":"Vaada","duration":29},{"id":1203970,"name":"Deewangi  Music","duration":29},{"id":937987,"name":"Vicky Donor Romantic","duration":29},{"id":927060,"name":"Best Romantic Song","duration":29},{"id":968533,"name":"Nice Female Saiyaara","duration":24},{"id":938398,"name":"Romantic","duration":20},{"id":338803,"name":"Kank","duration":11},{"id":104736,"name":"Porque","duration":29},{"id":1037342,"name":"carol","duration":14},{"id":1099319,"name":"Sanam Re","duration":29},{"id":1203478,"name":"Chakde Chakde","duration":29},{"id":968535,"name":"Special Saiyaara","duration":24},{"id":984305,"name":"Sagar Kinare","duration":18},{"id":1171952,"name":"Nancy - Mesh Enta 1","duration":25},{"id":134435,"name":"Woh Raatien","duration":21},{"id":940490,"name":"Romantic Song","duration":29},{"id":990700,"name":"Saajna","duration":29},{"id":185064,"name":"Nancy Nafsyto3","duration":29},{"id":108439,"name":"Mandram","duration":29},{"id":102896,"name":"Keladi Kanmani","duration":29},{"id":185099,"name":"Nancy Bayaa W Shate2","duration":29},{"id":24942,"name":"Romantic - Dew Drops -Theme music","duration":30},{"id":108434,"name":"Manil Intha","duration":26},{"id":947969,"name":"Ayan Song Whistle","duration":25},{"id":285529,"name":"Rhtdm Kaise Mein","duration":29},{"id":968997,"name":"Mazhai Varum","duration":19},{"id":1222107,"name":"Tujme Rab Dikhta Hai","duration":24},{"id":868292,"name":"Romance","duration":22},{"id":180800,"name":"Ishq Mera Gunah","duration":29},{"id":1039919,"name":"Ek Villain music","duration":21},{"id":1218264,"name":"Dostana-english Song","duration":29},{"id":138189,"name":"Pularmanjupolee","duration":28},{"id":185106,"name":"Nancy Bel Hadwa1","duration":29},{"id":1217576,"name":"Ghazini - Guzarish","duration":29},{"id":1202382,"name":"Aahista Bachna","duration":28},{"id":1276517,"name":"Dil Ne Tumko","duration":24},{"id":198567,"name":"Sottusotta","duration":29},{"id":68517,"name":"All I Want Is you","duration":30},{"id":971132,"name":"Hum Tumhein Chahtein","duration":19},{"id":1255503,"name":"Laboon Koromance","duration":24},{"id":867057,"name":"Tum Ho","duration":27},{"id":782848,"name":"Suno Na Jhankarbeats","duration":26},{"id":839068,"name":"For Love","duration":28},{"id":951445,"name":"Let Me In Love Song","duration":18},{"id":1286348,"name":"Sajna 2","duration":29},{"id":314191,"name":"Iphone Romantic Sms","duration":11},{"id":954976,"name":"Violin Kilukkam","duration":12},{"id":946347,"name":"Fi Ouyounk1","duration":29},{"id":980464,"name":"Jaanu Na Mein","duration":25},{"id":819074,"name":"Tu Jane","duration":29},{"id":1150373,"name":"KeepRunningHomeToYou","duration":30},{"id":1328434,"name":"Last Song For You","duration":29},{"id":279374,"name":"Vetor Bole","duration":12},{"id":795128,"name":"Romantic Love Song","duration":27},{"id":1044378,"name":"muzyka","duration":29},{"id":12624,"name":"romantic SoNgTONE","duration":27},{"id":1211110,"name":"Border","duration":29},{"id":1233506,"name":"Bollywood Remix Song","duration":20},{"id":1301457,"name":"Romantic Music","duration":28},{"id":1024946,"name":"Aasman The Sky","duration":26},{"id":1203937,"name":"Dil Haara132","duration":29},{"id":225542,"name":"Joseph Attia","duration":29},{"id":1202394,"name":"Aankh Hai Bhari","duration":24},{"id":289358,"name":"Miss Na Miss Kita","duration":28},{"id":958168,"name":"Ek Deewana Tha","duration":20},{"id":839175,"name":"Thamilring Tone","duration":18},{"id":199505,"name":"Nancy Bayaa W Shater","duration":29},{"id":985620,"name":"Hamesh Kitna Pyar","duration":25},{"id":901516,"name":"Awesome Love Song","duration":15},{"id":1338066,"name":"Oo Jaane Jaana","duration":29},{"id":282779,"name":"Tamil - Limca Ad 01","duration":29},{"id":1209570,"name":"Jab Bhi Jee Chahe","duration":29},{"id":1171954,"name":"Nancy - Mesh Enta 2","duration":27},{"id":781476,"name":"Md Rafi","duration":18},{"id":954973,"name":"Flute Malayalam","duration":13},{"id":1248838,"name":"Law Te3raf Randa","duration":23},{"id":256229,"name":"Manathilnidrakatali","duration":29},{"id":837892,"name":"Tenu Samjawaan Ki","duration":28},{"id":828008,"name":"Arabic Romantic Song","duration":26},{"id":1283488,"name":"Romantic Song","duration":26},{"id":1112041,"name":"frist best tone 2017","duration":29},{"id":1281706,"name":"Hum Tum Title Song","duration":29},{"id":777072,"name":"Best Romantic Song","duration":29}]}