{"queryTime":"1 Seconds","totalCount":2946,"pageNumber":1,"perPage":200,"pageCount":200,"data":[{"id":1007654,"name":"Akhiya","duration":29},{"id":1344112,"name":"High Punjabi Beats","duration":24},{"id":898041,"name":"Angreji Beat","duration":29},{"id":1240531,"name":"Hey Hey","duration":29},{"id":888250,"name":"Kii Samjiye","duration":29},{"id":146684,"name":"Ford","duration":27},{"id":828305,"name":"Atif Punjabi","duration":27},{"id":1285658,"name":"Ya Ya Ya","duration":29},{"id":1296573,"name":"Surma","duration":29},{"id":880073,"name":"Angreji Beat","duration":16},{"id":1216438,"name":"Sonyo Narazgi Tey","duration":26},{"id":1172738,"name":"Debi Punjabi","duration":28},{"id":1245170,"name":"Putt Chamara De","duration":30},{"id":1263160,"name":"Punjabi At Its Best","duration":29},{"id":788048,"name":"Punjabi Munde","duration":22},{"id":781901,"name":"Aja Ve Mahi","duration":12},{"id":15966,"name":"punjabi","duration":15},{"id":1236555,"name":"Stolen  Heart","duration":29},{"id":838520,"name":"Soni Si Kudipunjabi","duration":23},{"id":1241329,"name":"Hai Margay","duration":29},{"id":1348251,"name":"Sartaj-sai","duration":29},{"id":36440,"name":"Ari Ari","duration":27},{"id":114882,"name":"Sonni Kuri Ring","duration":24},{"id":913818,"name":"Honey Singh","duration":27},{"id":859695,"name":"Tashan Sherry Mann","duration":25},{"id":1346390,"name":"Yaadan Teriya","duration":29},{"id":1212968,"name":"Thaker","duration":16},{"id":275898,"name":"Ishq Tera Tadpave","duration":29},{"id":1216582,"name":"Dil Luteya","duration":23},{"id":198033,"name":"Billo - Hyper","duration":29},{"id":46604,"name":"sad music","duration":30},{"id":185330,"name":"Punjabi Rambo","duration":21},{"id":39610,"name":"TERE BIN","duration":30},{"id":1172667,"name":"Driver","duration":29},{"id":1185203,"name":"Singh Is Kinng","duration":29},{"id":1294788,"name":"Punjabi Tumbi","duration":11},{"id":118427,"name":"Sohni Lagdi","duration":29},{"id":1315585,"name":"Miss Punjaban","duration":13},{"id":23740,"name":"sheran de deryan te","duration":30},{"id":1187933,"name":"Buhe Barian","duration":29},{"id":1190233,"name":"Bob Mann","duration":29},{"id":380406,"name":"Punjabi Gurubani","duration":29},{"id":1333983,"name":"Farmaish","duration":29},{"id":40745,"name":"dgplus on punjabi","duration":28},{"id":845816,"name":"Tumka 2","duration":29},{"id":852736,"name":"Nokia Dance Punjabi","duration":24},{"id":1347603,"name":"12 Bor De","duration":29},{"id":866777,"name":"Dhol","duration":1},{"id":112059,"name":"Panga","duration":29},{"id":883893,"name":"Dope Shope","duration":29},{"id":1163564,"name":"swag","duration":29},{"id":381658,"name":"Yaad Apni Nu","duration":29},{"id":1217882,"name":"Lalkaara Mix","duration":12},{"id":114187,"name":"Jagravan","duration":27},{"id":777518,"name":"Seeti","duration":29},{"id":1167047,"name":"Le Chak punjabi","duration":22},{"id":1257769,"name":"Bestest Rap","duration":29},{"id":782797,"name":"Apni To-punjabi Mix","duration":26},{"id":1196309,"name":"Chak De Patty","duration":25},{"id":1247321,"name":"Yeh Ishq Hai Remix","duration":29},{"id":922145,"name":"Funny Punjabi Tone","duration":11},{"id":974370,"name":"Darmiya-punjabi","duration":26},{"id":185293,"name":"Mahi Mahi","duration":29},{"id":1237243,"name":"Hawelly Jatt","duration":24},{"id":995652,"name":"Yenkne","duration":29},{"id":1289769,"name":"Bhangra Beat","duration":23},{"id":1258150,"name":"Rambo Punjabi","duration":29},{"id":1293999,"name":"Kandi Hundi Si","duration":29},{"id":801498,"name":"Punjabi Sms 2010","duration":6},{"id":1038943,"name":"punjabi bugtooo algo","duration":19},{"id":293599,"name":"Punjabi Call","duration":22},{"id":1096538,"name":"Club","duration":28},{"id":955641,"name":"Bhagat Singh Punjabi","duration":29},{"id":316633,"name":"Kaali De Nali","duration":29},{"id":832864,"name":"Punjabi Abc Funny","duration":23},{"id":1277861,"name":"Gym 2-miss Pooja-","duration":29},{"id":1337343,"name":"Doliyan Ch Jaan","duration":27},{"id":1238598,"name":"Nachdi","duration":28},{"id":1310026,"name":"Haal Puch Lai","duration":29},{"id":1281650,"name":"Aankhiyan","duration":29},{"id":1240651,"name":"Bhullan Di Koshish","duration":29},{"id":930897,"name":"Sanu Bhool Na Jana","duration":29},{"id":860928,"name":"Best Punjabi Music","duration":29},{"id":1337340,"name":"Chitte Suit Te","duration":29},{"id":108732,"name":"Ranjhana","duration":29},{"id":1190618,"name":"Lucky Boy","duration":27},{"id":848711,"name":"Kala Chashma","duration":29},{"id":871182,"name":"Lakk 28 Music","duration":7},{"id":843250,"name":"Chamkila","duration":23},{"id":1196944,"name":"Kawa Kawa","duration":28},{"id":973405,"name":"Best Pj Sound","duration":28},{"id":1330547,"name":"Paki Punjabi","duration":22},{"id":1210371,"name":"Aaja Nachlay","duration":29},{"id":121127,"name":"Waheguru Waheguru","duration":29},{"id":885949,"name":"Punjabi Kolaveri Di","duration":29},{"id":1357959,"name":"Khaalas Tone","duration":29},{"id":1175837,"name":"Aaja Soniye","duration":29},{"id":1191046,"name":"Clap Ur Hands","duration":27},{"id":330974,"name":"Pure Desi Dhol","duration":29},{"id":237431,"name":"Punjabi Putt Chamar","duration":27},{"id":1296686,"name":"Mera Gaam01","duration":29},{"id":77381,"name":"NAKHRA----KABIR","duration":25},{"id":868969,"name":"Punjabi Anankh","duration":23},{"id":196073,"name":"Gori Diyan Chanjaraa","duration":22},{"id":1223487,"name":"Punjabi-dance Pe Cha","duration":15},{"id":853167,"name":"Dj Hans Like This","duration":28},{"id":884407,"name":"Punjabi Rocking Tune","duration":29},{"id":1191114,"name":"Raj Ranjodh Virsa","duration":27},{"id":1264548,"name":"Kinni Sonilomatic","duration":24},{"id":1202865,"name":"Remix Punjabi","duration":21},{"id":1305473,"name":"Paisa Punjabi","duration":29},{"id":904949,"name":"Pestol","duration":29},{"id":353867,"name":"Punjabi Song","duration":19},{"id":977095,"name":"Challa Punjabi Jthj","duration":29},{"id":281250,"name":"Aadat By Kaler Kanth","duration":28},{"id":1240388,"name":"Atthru K S Makhan","duration":29},{"id":116634,"name":"True Flute","duration":29},{"id":350806,"name":"Rock You","duration":27},{"id":795140,"name":"Sad","duration":11},{"id":1263001,"name":"Jaan","duration":25},{"id":1340131,"name":"Sai Punjabi","duration":28},{"id":61723,"name":"sardaari","duration":21},{"id":153677,"name":"Furke","duration":19},{"id":180781,"name":"Rang Pakka","duration":27},{"id":883636,"name":"Love U - Akh Nal Ak","duration":26},{"id":1305498,"name":"Kalli Kiteh","duration":29},{"id":951274,"name":"Funny Punjabi Kid","duration":22},{"id":1348669,"name":"Sada Rab Janda","duration":11},{"id":860827,"name":"Ra One Punjabi Mix","duration":27},{"id":131362,"name":"Punjabi Dhol","duration":29},{"id":853700,"name":"Punjabi Sad Tone","duration":25},{"id":1279338,"name":"Bae Bae","duration":29},{"id":1322460,"name":"Honey Singh","duration":20},{"id":792535,"name":"Punjabi Mundhe","duration":29},{"id":838031,"name":"South Hall Punjabi","duration":29},{"id":285659,"name":"Tu Badli","duration":27},{"id":949639,"name":"Nadiyan","duration":21},{"id":1311528,"name":"Asi Jihna Layi Dua","duration":25},{"id":1192823,"name":"Mera Laun Gawacha","duration":28},{"id":1355710,"name":"Best Boli Ever","duration":23},{"id":122445,"name":"Punjabi Love Words","duration":10},{"id":103899,"name":"Punjabi","duration":29},{"id":1224066,"name":"Gabru","duration":29},{"id":1265498,"name":"Awsome Flute","duration":22},{"id":979371,"name":"Yo Yo Honey Singh","duration":29},{"id":796260,"name":"Rona Chhad Ditta","duration":29},{"id":1212828,"name":"Rab Ne Bana Di Jodi","duration":24},{"id":1196604,"name":"Aaja  Aaja","duration":29},{"id":1237170,"name":"Lok Tath","duration":29},{"id":861700,"name":"Munde To Bachke","duration":21},{"id":1144173,"name":"patake","duration":24},{"id":1278082,"name":"Punjabi","duration":29},{"id":340771,"name":"Latest Punjabi Song","duration":29},{"id":1051806,"name":"Punjabi Killer Tune","duration":29},{"id":1181995,"name":"Punjabi Sms","duration":13},{"id":1273558,"name":"Churriyan","duration":27},{"id":797562,"name":"Punjabi Song Tone","duration":25},{"id":1190374,"name":"Bhoothni Keh","duration":18},{"id":1219447,"name":"Pata Laga Na","duration":29},{"id":1240696,"name":"Kabbadi Da Player","duration":29},{"id":1309698,"name":"Nokia Punjabi Mix","duration":24},{"id":1240679,"name":"Dill Kalla Part1","duration":29},{"id":121120,"name":"Gobind Ke Gun Gaavo","duration":26},{"id":1323265,"name":"Yaara Dildara","duration":21},{"id":1308811,"name":"Chal Jhuti","duration":28},{"id":1241989,"name":"Hik Te Jor","duration":29},{"id":289991,"name":"Shayari","duration":9},{"id":1302798,"name":"Doli Vicho Heer","duration":20},{"id":1348667,"name":"Yaar Bolda","duration":20},{"id":38810,"name":"Challa","duration":26},{"id":1144171,"name":"punjabi sarangi","duration":26},{"id":803035,"name":"Husn Shikari - Blue","duration":29},{"id":315979,"name":"Satnam Sri Waheguru","duration":29},{"id":808879,"name":"3 Idiots Punjabi","duration":28},{"id":179745,"name":"Aj Mein Pini Aa","duration":29},{"id":1182027,"name":"Ajjaniajja","duration":21},{"id":1150401,"name":"Heer Meri Dheera","duration":21},{"id":1237250,"name":"4meharbani Pooja Di","duration":29},{"id":915064,"name":"Heeiye","duration":22},{"id":1234236,"name":"Munda","duration":29},{"id":1241459,"name":"New Punjabi","duration":29},{"id":829292,"name":"Punjabi Jingle Bell","duration":19},{"id":285544,"name":"Mai Tenu Samjhava","duration":28},{"id":920217,"name":"Asla Najaiz Rakheya","duration":28},{"id":1240190,"name":"Yaad","duration":29},{"id":23766,"name":"filhaal","duration":27},{"id":1309789,"name":"Burrrrrrrrrrrrrrrr","duration":5},{"id":1299622,"name":"Ek Raat Ka Sawal","duration":28},{"id":61050,"name":"jhoolde kesri jhande","duration":20},{"id":340823,"name":"Wahe Guru","duration":27},{"id":1194066,"name":"Punjabi Blast","duration":27},{"id":147135,"name":"Khalistani Soorme","duration":29},{"id":848430,"name":"Raj Brar Peli Uddi","duration":7},{"id":285623,"name":"Aja Mahi","duration":29},{"id":1201647,"name":"Sing Is Kinng","duration":24},{"id":976373,"name":"Ishq N Paris Punjabi","duration":18},{"id":317584,"name":"O Tina O Tina","duration":21},{"id":182910,"name":"Collage","duration":25},{"id":346798,"name":"Chaska","duration":29},{"id":193238,"name":"Dil Ni Lagda","duration":19}]}