{"queryTime":"0 Seconds","totalCount":413,"pageNumber":1,"perPage":200,"pageCount":200,"data":[{"id":1083940,"name":"2015 SUMMER RELAX","duration":28},{"id":887889,"name":"Relaxing","duration":15},{"id":1015186,"name":"Splendid Ringtone","duration":29},{"id":1362404,"name":"Relaxing Violin","duration":28},{"id":48174,"name":"Mellow Piano","duration":22},{"id":797806,"name":"Relaxing Sms","duration":28},{"id":271999,"name":"Relaxing Sms","duration":28},{"id":1107159,"name":"Local Forecast","duration":29},{"id":123126,"name":"Relaxing Tone","duration":13},{"id":1360864,"name":"Relax Tone","duration":26},{"id":1004977,"name":"Relaxin Guitar","duration":29},{"id":897344,"name":"Relaxing Tone","duration":20},{"id":1138968,"name":"Hotline Miami End","duration":29},{"id":120348,"name":"Lavanda","duration":27},{"id":334731,"name":"Ibiza Guitar","duration":29},{"id":1201020,"name":"Flertaro By Raysharp","duration":29},{"id":994869,"name":"Romantic Guitar","duration":22},{"id":816657,"name":"Relaxing Tone","duration":29},{"id":166722,"name":"Ne Tronesh","duration":28},{"id":1236745,"name":"Sweet Sms","duration":11},{"id":271733,"name":"I Am Cold","duration":12},{"id":1025064,"name":"Water Drops","duration":10},{"id":796462,"name":"Relaxing Tune","duration":29},{"id":1212661,"name":"Great Nokia N95 Tune","duration":19},{"id":985414,"name":"Elegent Tone","duration":29},{"id":87863,"name":"Remember me","duration":28},{"id":966414,"name":"Catchy Whistle Theme","duration":28},{"id":1301281,"name":"Relaxing Guitar","duration":27},{"id":1119026,"name":"Restless Peace","duration":25},{"id":1006139,"name":"Slow Guitar","duration":29},{"id":1052139,"name":"In my heart","duration":26},{"id":1029561,"name":"Equinox","duration":22},{"id":1037142,"name":"meditative guitar","duration":29},{"id":127111,"name":"Relaxing-tune","duration":27},{"id":47556,"name":"Soothing Piano","duration":28},{"id":344459,"name":"Piano Tune","duration":16},{"id":898934,"name":"Relaxing Alarm","duration":29},{"id":1025649,"name":"Guitar","duration":28},{"id":1004120,"name":"Sad Piano","duration":26},{"id":118376,"name":"The Chase Pt 1","duration":29},{"id":170893,"name":"Relaxing Piano","duration":28},{"id":176135,"name":"Relaxing Versace","duration":21},{"id":191213,"name":"Relaxing","duration":28},{"id":1044852,"name":"XII-Waterside","duration":29},{"id":204243,"name":"Fairy","duration":28},{"id":1008070,"name":"Relaxation","duration":29},{"id":1091122,"name":"Tune of the year2015","duration":29},{"id":997826,"name":"Littlemix-dnahd","duration":16},{"id":1298669,"name":"Relaxing Saxaphone","duration":29},{"id":336601,"name":"Slow Play","duration":17},{"id":14367,"name":"best relaxing ringtone","duration":23},{"id":1195556,"name":"Protonic","duration":25},{"id":970349,"name":"Beautiful Rain","duration":29},{"id":55102,"name":"Dreamfeel","duration":29},{"id":1252497,"name":"Relax","duration":28},{"id":356148,"name":"Morning","duration":27},{"id":1165856,"name":"rude 2","duration":30},{"id":1147165,"name":"Tokyo","duration":26},{"id":1305852,"name":"Relaxing Tune","duration":27},{"id":76810,"name":"Splash - Rc week 197","duration":30},{"id":1353480,"name":"Condore","duration":29},{"id":1218997,"name":"A Bird Came Flying 2","duration":17},{"id":47133,"name":"Relaxing Music","duration":29},{"id":1000037,"name":"Beauty Piano","duration":27},{"id":819271,"name":"Message","duration":21},{"id":338051,"name":"Relaxing Tone","duration":28},{"id":1031464,"name":"Byzantium New 2014","duration":29},{"id":1003723,"name":"Relaxing Guitar","duration":29},{"id":289500,"name":"Classical","duration":19},{"id":1318537,"name":"Surili-veer","duration":29},{"id":1164562,"name":"ly o lay ale loya","duration":30},{"id":1169918,"name":"rainrops on roof","duration":15},{"id":849431,"name":"Cool Alert Tone","duration":2},{"id":287955,"name":"Beautiful","duration":28},{"id":1296781,"name":"Hopeless Love","duration":29},{"id":1268721,"name":"Relaxing  Tone","duration":28},{"id":932732,"name":"Hello Tomorrow","duration":29},{"id":849521,"name":"Cool Synth","duration":4},{"id":167013,"name":"Relaxing Tone","duration":11},{"id":1002332,"name":"Relaxing Guitar","duration":29},{"id":1238763,"name":"Peaceful Sound","duration":23},{"id":1104419,"name":"Link wake up","duration":29},{"id":165910,"name":"The Coolest Ever","duration":29},{"id":811320,"name":"Beautiful Tibetan","duration":22},{"id":873657,"name":"Soft Piano Music 001","duration":29},{"id":794533,"name":"Romantic Sms","duration":28},{"id":878580,"name":"Echoing Msg","duration":25},{"id":157941,"name":"Chillout Ringtone","duration":19},{"id":1320075,"name":"2010soothinghd","duration":22},{"id":1298667,"name":"Nice Ringtone","duration":22},{"id":1145735,"name":"Chamber of Reflectn","duration":24},{"id":84096,"name":"Clare De Lune","duration":28},{"id":788272,"name":"Bells Sms","duration":7},{"id":1313134,"name":"Saksophone","duration":29},{"id":287881,"name":"Rainforest","duration":19},{"id":1298655,"name":"Nice Piano","duration":28},{"id":1088764,"name":"Nice alarm","duration":29},{"id":890689,"name":"Relaxing Flute","duration":28},{"id":1157391,"name":"Relaxing gameplay","duration":14},{"id":1029632,"name":"Relaxing Piano Music","duration":29},{"id":1333083,"name":"Calm Tone","duration":15},{"id":288791,"name":"Spirit Soundtrack","duration":28},{"id":1085821,"name":"Remembrance","duration":29},{"id":1311739,"name":"Rain","duration":29},{"id":104952,"name":"Pinky","duration":2},{"id":954977,"name":"Rush - Moleman","duration":27},{"id":1280426,"name":"Relaxing Mix","duration":25},{"id":863135,"name":"Melody In A Box","duration":20},{"id":794532,"name":"Music Box","duration":22},{"id":935575,"name":"Relaxing Alarm","duration":26},{"id":1334448,"name":"Relaxingsound Wbird","duration":28},{"id":789163,"name":"Lota Yokona","duration":3},{"id":899051,"name":"Karuan-chocolate","duration":18},{"id":1005479,"name":"Amas Veritas","duration":29},{"id":44648,"name":"Relaxing tune","duration":27},{"id":1337708,"name":"Relaxing Tone","duration":28},{"id":1165526,"name":"Reflection","duration":30},{"id":1338611,"name":"Relaxing Tone","duration":28},{"id":1219015,"name":"Moon Song 2","duration":26},{"id":833790,"name":"Desi","duration":27},{"id":21356,"name":"Dreamfeel","duration":29},{"id":1005436,"name":"Htc One Relaxing2013","duration":28},{"id":1253949,"name":"Relax","duration":12},{"id":1028602,"name":"Magical Tone","duration":19},{"id":185365,"name":"Relaxing Tone","duration":29},{"id":1048606,"name":"Native DrumsFlutes","duration":29},{"id":218656,"name":"Relaxing Ringtone","duration":23},{"id":280388,"name":"Tranquil Music","duration":7},{"id":1123957,"name":"Icy Steps Down","duration":15},{"id":1212332,"name":"New Nokia Tune N95","duration":12},{"id":1318195,"name":"Relaxing Piano","duration":28},{"id":1034860,"name":"Wonderful Ocean","duration":29},{"id":1342337,"name":"Relaxing Sms","duration":10},{"id":1175080,"name":"Like Only A Women","duration":29},{"id":1277728,"name":"Cool Sms","duration":19},{"id":862620,"name":"Peaceful Music","duration":29},{"id":242333,"name":"Happy Tone","duration":20},{"id":1048690,"name":"Hepta Mix","duration":29},{"id":872330,"name":"Relaxing Tune","duration":27},{"id":1119172,"name":"Tonight In Dreamland","duration":25},{"id":997998,"name":"Relaxing Chill Out","duration":25},{"id":1295167,"name":"Guitar","duration":29},{"id":1180716,"name":"Magical Ring Tone","duration":21},{"id":795951,"name":"292331997820320-she","duration":26},{"id":819400,"name":"Relaxing Flute Tone","duration":28},{"id":47148,"name":"Relaxing Guitar - RC Week 192","duration":27},{"id":243712,"name":"Good Ringtone","duration":26},{"id":1050851,"name":"Zedekiahs Son","duration":23},{"id":316583,"name":"Relaxing Music","duration":17},{"id":1085823,"name":"Av Skymning Kommen","duration":29},{"id":195921,"name":"Nice Harp Sound","duration":8},{"id":794534,"name":"Romantic Piano","duration":28},{"id":845219,"name":"Ooooooo Smuv","duration":29},{"id":1034862,"name":"Relaxing Music","duration":29},{"id":1030972,"name":"bluegrass guitar","duration":4},{"id":799247,"name":"Fall In Love","duration":26},{"id":1303499,"name":"Relaxing Piano","duration":29},{"id":1004659,"name":"Voice Of The Nature","duration":23},{"id":1013468,"name":"Watch The Rain","duration":29},{"id":1010982,"name":"Freedom","duration":29},{"id":1035961,"name":"Relaxing Tune","duration":29},{"id":1008596,"name":"Relaxing Wake Up No1","duration":28},{"id":1046287,"name":"Relaxing Guitar","duration":25},{"id":1044853,"name":"Yanny-Violin","duration":29},{"id":1016505,"name":"Relaxing Sounds","duration":29},{"id":122813,"name":"Titanic Guitar","duration":29},{"id":1350734,"name":"Relaxingsound","duration":18},{"id":1220299,"name":"Flara Sadness 2","duration":27},{"id":890639,"name":"Guitar In Love","duration":28},{"id":1259304,"name":"Great Sound 2009","duration":29},{"id":829808,"name":"Cute Piano Sound","duration":20},{"id":1305325,"name":"Chill Out Sms","duration":10},{"id":3454,"name":"Guitar Solo","duration":23},{"id":1268323,"name":"Relaxing Message","duration":18},{"id":790164,"name":"Ultimate Sound","duration":23},{"id":129817,"name":"Relaxing Tone","duration":29},{"id":302102,"name":"Sound Of Rain","duration":29},{"id":1102645,"name":"Relaxing Ringtone","duration":28},{"id":1085088,"name":"Back and Forth","duration":29},{"id":1305411,"name":"Masterpiece","duration":29},{"id":344922,"name":"Piano Solo","duration":29},{"id":14505,"name":"relaxing sms","duration":10},{"id":17947,"name":"Clare De Lune","duration":28},{"id":245372,"name":"Relaxing Music","duration":27},{"id":1161252,"name":"Marimba Ring","duration":12},{"id":794751,"name":"Like A Dream","duration":26},{"id":1224914,"name":"Romance","duration":29},{"id":339836,"name":"Peaceful","duration":20},{"id":801617,"name":"Sirens Song","duration":27},{"id":1001950,"name":"Water","duration":5},{"id":993701,"name":"Relaxing Piano Tone","duration":29},{"id":1219023,"name":"Little Dog Lullaby 3","duration":26},{"id":1339280,"name":"Oriental Rhythms","duration":29},{"id":1162348,"name":"Babes Bubbles","duration":2},{"id":987287,"name":"Best Relax Tone","duration":11},{"id":794537,"name":"Romantic Muisc","duration":28},{"id":87489,"name":"Sad piano","duration":16},{"id":1236113,"name":"Incoming Message","duration":13},{"id":1003755,"name":"Relaxing Piano","duration":29},{"id":1169513,"name":"Confession","duration":30}]}