{"queryTime":"4 Seconds","totalCount":6152,"pageNumber":1,"perPage":200,"pageCount":200,"data":[{"id":1174329,"name":"Mail Mo Fo","duration":1},{"id":867304,"name":"Thisl To Die","duration":29},{"id":1251174,"name":"Trevoga","duration":29},{"id":1246234,"name":"Kosov Shqipni","duration":19},{"id":299790,"name":"Tamil Rap","duration":27},{"id":1262626,"name":"Ruroskirsuji","duration":29},{"id":1350741,"name":"Russian Crunk","duration":28},{"id":356327,"name":"Nfs - Underground","duration":19},{"id":1061153,"name":"Kelly Is Calling Rap","duration":23},{"id":1235823,"name":"Still Shoppin","duration":25},{"id":1136905,"name":"Rap Ca Pe Manele","duration":20},{"id":1228154,"name":"Russian Rap","duration":29},{"id":1314065,"name":"Ehsan Gheibi","duration":29},{"id":251490,"name":"Scary Movie Rap","duration":15},{"id":870696,"name":"The Spins","duration":12},{"id":1153945,"name":"Techno DJ","duration":16},{"id":1335275,"name":"Hip Hop Tone 7","duration":25},{"id":931980,"name":"Honey Singh Best Rap","duration":29},{"id":779068,"name":"Pangaaa Rapp","duration":29},{"id":1302590,"name":"Fatboy-swagglikeme","duration":29},{"id":1286652,"name":"First Ipressionz","duration":28},{"id":360661,"name":"Bangla Rnb","duration":29},{"id":331920,"name":"Chtti Dance Show Rap","duration":19},{"id":230701,"name":"Rap Music","duration":17},{"id":1235515,"name":"Triada And Dsham","duration":28},{"id":1060149,"name":"Sydney Is Calling Rap","duration":23},{"id":1060439,"name":"Mia Is Calling Rap","duration":23},{"id":1325760,"name":"Disco-bandor","duration":29},{"id":1273376,"name":"India Got Talent","duration":28},{"id":185174,"name":"Mudd Digger","duration":29},{"id":85131,"name":"La Trompeta","duration":29},{"id":1355368,"name":"Boosie - Gutta","duration":29},{"id":1168534,"name":"Turn off your phone","duration":29},{"id":1167307,"name":"LilClooki","duration":30},{"id":1057827,"name":"Gabriella Is Calling Rap","duration":23},{"id":1300018,"name":"My Girl Rus","duration":29},{"id":1057409,"name":"Kenya Is Calling Rap","duration":23},{"id":873869,"name":"Al-mawlid Dance","duration":29},{"id":1158469,"name":"One Word","duration":19},{"id":915455,"name":"Baby Rap New","duration":25},{"id":1059295,"name":"Bruno Is Calling Rap","duration":32},{"id":152292,"name":"Duck Tape","duration":29},{"id":1160703,"name":"Ocean Dive","duration":20},{"id":1154264,"name":"Techno Mystery","duration":18},{"id":1341230,"name":"Dazhdis Menya","duration":29},{"id":1160524,"name":"Electronic Voice","duration":15},{"id":357497,"name":"Claptrap Rap","duration":11},{"id":1274673,"name":"Swag","duration":17},{"id":793989,"name":"Yoru Rap","duration":8},{"id":868509,"name":"Mix Baby Rap","duration":26},{"id":1064660,"name":"Marina Is Calling Rap","duration":23},{"id":27986,"name":"gta","duration":19},{"id":27565,"name":"dmx-w-m-name","duration":24},{"id":271701,"name":"One Night Stand","duration":27},{"id":46885,"name":"Spanish Guitar 3","duration":29},{"id":301640,"name":"2010 Rap Weddng","duration":18},{"id":1215422,"name":"Mean Muggin","duration":28},{"id":1286649,"name":"Slap Chop Rap 2","duration":29},{"id":1064133,"name":"Russell Is Calling Rap","duration":23},{"id":1063812,"name":"Alayah Is Calling Rap","duration":22},{"id":1057123,"name":"Darrell Is Calling Rap","duration":23},{"id":1364042,"name":"Peja","duration":20},{"id":1199574,"name":"First Express Rap","duration":14},{"id":1064485,"name":"Erick Is Calling Rap","duration":23},{"id":985775,"name":"Love Instrumental","duration":29},{"id":1163608,"name":"Ice Cube - Gang Inst","duration":22},{"id":1153070,"name":"Out There","duration":17},{"id":1210521,"name":"Bad","duration":29},{"id":1065059,"name":"Marlee Is Calling Rap","duration":23},{"id":1062033,"name":"Patience Is Calling Rap","duration":23},{"id":1281753,"name":"Pezet","duration":29},{"id":323694,"name":"Hororrap","duration":21},{"id":1063973,"name":"Addilyn Is Calling Rap","duration":23},{"id":1335276,"name":"Hip Hop Tone 8","duration":19},{"id":139814,"name":"Slovak Rap Supercroo","duration":29},{"id":1330377,"name":"Touch It","duration":29},{"id":1334328,"name":"Letminimum Alatt","duration":28},{"id":1170682,"name":"III Mind of Hopsin 8","duration":30},{"id":1152464,"name":"Thoughtful","duration":12},{"id":1300841,"name":"Hector 1","duration":29},{"id":903250,"name":"The Lacs","duration":29},{"id":1057435,"name":"Coen Is Calling Rap","duration":23},{"id":1057421,"name":"Dakota Is Calling Rap","duration":23},{"id":837247,"name":"Hip Hop Instrumental","duration":29},{"id":165777,"name":"Donkey Kong Country","duration":28},{"id":1064143,"name":"Davian Is Calling Rap","duration":23},{"id":946242,"name":"Rival Underground","duration":23},{"id":1065910,"name":"Alonso Is Calling Rap","duration":22},{"id":1265095,"name":"Summer Breeze Dj Mix","duration":20},{"id":44834,"name":"Windows Xp Rap","duration":28},{"id":1060602,"name":"Rachel Is Calling Rap","duration":23},{"id":1269084,"name":"Clean As A Whistle","duration":29},{"id":1056231,"name":"Gerald Is Calling Rap","duration":23},{"id":1125222,"name":"buckwild 2","duration":20},{"id":1063386,"name":"Helen Is Calling Rap","duration":23},{"id":1240873,"name":"Gangsta Blue","duration":28},{"id":1264135,"name":"Me And You","duration":29},{"id":19434,"name":"Poker Face","duration":25},{"id":76444,"name":"Losing Control","duration":28},{"id":1004447,"name":"I Get High","duration":23},{"id":1360147,"name":"Telki Letom","duration":29},{"id":1064543,"name":"Iris Is Calling Rap","duration":23},{"id":1268358,"name":"Mega Bass","duration":29},{"id":869041,"name":"Rap Song","duration":29},{"id":382553,"name":"Something About Your","duration":29},{"id":1130855,"name":"Ultra Moderne","duration":11},{"id":1060246,"name":"Vivian Is Calling Rap","duration":23},{"id":1062084,"name":"Piper Is Calling Rap","duration":23},{"id":267081,"name":"New Panjabi Rap","duration":29},{"id":246791,"name":"Reggae","duration":29},{"id":1152456,"name":"Cliff Hanger","duration":20},{"id":1361516,"name":"Bounce","duration":25},{"id":1355358,"name":"Boosie - City Bus","duration":29},{"id":926572,"name":"Hai Mera Dil Honey","duration":29},{"id":922652,"name":"Murda","duration":29},{"id":43313,"name":"^FLY^ RC WEEK 99","duration":21},{"id":1240416,"name":"Its In Me","duration":22},{"id":985251,"name":"Myiphone5","duration":14},{"id":1058014,"name":"Rhett Is Calling Rap","duration":23},{"id":1060792,"name":"Lylah Is Calling Rap","duration":23},{"id":274200,"name":"Hood Girl","duration":29},{"id":1060802,"name":"King Is Calling Rap","duration":23},{"id":1195463,"name":"Lookin At Me-instrum","duration":28},{"id":1057705,"name":"Valentina Is Calling Rap","duration":23},{"id":1221142,"name":"Rap Moja Kokaina","duration":28},{"id":1059886,"name":"Tate Is Calling Rap","duration":23},{"id":843374,"name":"Classic Ring","duration":5},{"id":1064893,"name":"Duncan Is Calling Rap","duration":23},{"id":369684,"name":"Katra Katra","duration":29},{"id":1355654,"name":"Freestyle","duration":22},{"id":1064496,"name":"Harvey Is Calling Rap","duration":23},{"id":1318289,"name":"Certainly - Turbo","duration":28},{"id":1061298,"name":"Noah Is Calling Rap","duration":23},{"id":273013,"name":"Xo-angered","duration":19},{"id":1064629,"name":"Samir Is Calling Rap","duration":23},{"id":1176531,"name":"Theme Lovestory2050","duration":24},{"id":231230,"name":"Undead Intro","duration":10},{"id":1269336,"name":"D-bo Luege","duration":23},{"id":1233174,"name":"Catch A Ride","duration":28},{"id":1056815,"name":"Wyatt Is Calling Rap","duration":23},{"id":1365192,"name":"Rap 2","duration":26},{"id":1149280,"name":"Upbeat","duration":15},{"id":1057150,"name":"Cale Is Calling Rap","duration":23},{"id":1270944,"name":"Truce Boys","duration":22},{"id":86042,"name":"right now","duration":27},{"id":1240720,"name":"Paki Rap","duration":17},{"id":1058358,"name":"Esmeralda Is Calling Rap","duration":23},{"id":1058211,"name":"Claudia Is Calling Rap","duration":23},{"id":285269,"name":"Monki Re Monki","duration":29},{"id":1218087,"name":"Remember Ur Roots 3","duration":18},{"id":1267199,"name":"Queener Dissin00tww","duration":22},{"id":1194812,"name":"No Greater Love","duration":29},{"id":87396,"name":"instrumental 1","duration":25},{"id":1058489,"name":"Kyron Is Calling Rap","duration":23},{"id":1363254,"name":"St Louis","duration":14},{"id":1236028,"name":"S9va Rapper","duration":20},{"id":1343370,"name":"Fandango Mixtape","duration":18},{"id":867820,"name":"Motcham026","duration":29},{"id":1065197,"name":"Sofia Is Calling Rap","duration":23},{"id":1179733,"name":"Ex Hoez","duration":23},{"id":1018481,"name":"The Best Ringtone","duration":14},{"id":1224167,"name":"French Instrumental","duration":29},{"id":1160317,"name":"Papier de Damas BO","duration":26},{"id":1331109,"name":"Whenthestreetscall","duration":29},{"id":944304,"name":"Em Kurdin Rap 2","duration":14},{"id":1206021,"name":"Punjabi Mix","duration":29},{"id":1065396,"name":"Nathan Is Calling Rap","duration":23},{"id":1265408,"name":"Dj Rap","duration":18},{"id":1267190,"name":"Queener Dinia Fania","duration":29},{"id":273817,"name":"Jeddah Legends","duration":20},{"id":240640,"name":"Aadhavan Hasili Rap","duration":27},{"id":1130884,"name":"Super Slick Song","duration":16},{"id":1332926,"name":"Baby-laugh Rap","duration":26},{"id":160753,"name":"Veera","duration":15},{"id":1065158,"name":"Baylee Is Calling Rap","duration":23},{"id":1056753,"name":"Hudson Is Calling Rap","duration":23},{"id":1201919,"name":"Vanisandcrain F Nks","duration":28},{"id":1216261,"name":"Culo Message Tone","duration":15},{"id":1062943,"name":"Raymond Is Calling Rap","duration":23},{"id":1351747,"name":"Tibbah","duration":20},{"id":1058190,"name":"Macey Is Calling Rap","duration":23},{"id":1251157,"name":"Miasto Noca","duration":27},{"id":1171204,"name":"ElijahwhoSkateboardP","duration":30},{"id":1155861,"name":"47soul 1","duration":24},{"id":1188942,"name":"The Gangsta Wanabe","duration":11},{"id":1236942,"name":"Dge - Zdarzylo Sie W","duration":29},{"id":27590,"name":"Available florida","duration":28},{"id":776506,"name":"Nokia Rap Mix","duration":26},{"id":1058373,"name":"Nash Is Calling Rap","duration":23},{"id":366776,"name":"New Rap Rington","duration":14},{"id":1301357,"name":"Monster","duration":20},{"id":1064373,"name":"Riya Is Calling Rap","duration":23},{"id":1064592,"name":"Chase Is Calling Rap","duration":23},{"id":185590,"name":"Baby Rap","duration":26},{"id":1146319,"name":"DAOKO - Love Rap","duration":25},{"id":300867,"name":"Ninja Rap","duration":17},{"id":218913,"name":"Rap-drzeus","duration":27},{"id":824276,"name":"Disco Woo Latest","duration":29},{"id":1063394,"name":"Iker Is Calling Rap","duration":23},{"id":1160547,"name":"Discovery Alarm","duration":29}]}